digraph "SchoolProgram"
{
  edge [fontname="Helvetica",fontsize="10",labelfontname="Helvetica",labelfontsize="10"];
  node [fontname="Helvetica",fontsize="10",shape=record];
  Node1 [label="SchoolProgram",height=0.2,width=0.4,color="black", fillcolor="grey75", style="filled", fontcolor="black"];
  Node2 -> Node1 [dir="back",color="darkorchid3",fontsize="10",style="dashed",label=" m_schoolDict" ,fontname="Helvetica"];
  Node2 [label="Dictionary\< int, School \>",height=0.2,width=0.4,color="black", fillcolor="white", style="filled",URL="$classDictionary.html"];
  Node3 -> Node2 [dir="back",color="darkorchid3",fontsize="10",style="dashed",label=" m_vector" ,fontname="Helvetica"];
  Node3 [label="DictionaryNode\< int,\l School \>",height=0.2,width=0.4,color="black", fillcolor="white", style="filled",URL="$structDictionaryNode.html"];
  Node4 -> Node3 [dir="back",color="darkorchid3",fontsize="10",style="dashed",label=" value" ,fontname="Helvetica"];
  Node4 [label="School",height=0.2,width=0.4,color="black", fillcolor="white", style="filled",URL="$structSchool.html"];
  Node5 -> Node1 [dir="back",color="darkorchid3",fontsize="10",style="dashed",label=" m_studentDict" ,fontname="Helvetica"];
  Node5 [label="Dictionary\< int, Student \>",height=0.2,width=0.4,color="black", fillcolor="white", style="filled",URL="$classDictionary.html"];
  Node6 -> Node5 [dir="back",color="darkorchid3",fontsize="10",style="dashed",label=" m_vector" ,fontname="Helvetica"];
  Node6 [label="DictionaryNode\< int,\l Student \>",height=0.2,width=0.4,color="black", fillcolor="white", style="filled",URL="$structDictionaryNode.html"];
  Node7 -> Node6 [dir="back",color="darkorchid3",fontsize="10",style="dashed",label=" value" ,fontname="Helvetica"];
  Node7 [label="Student",height=0.2,width=0.4,color="black", fillcolor="white", style="filled",URL="$structStudent.html"];
}
