digraph "cuTEST/StringUtil.hpp"
{
  edge [fontname="Helvetica",fontsize="10",labelfontname="Helvetica",labelfontsize="10"];
  node [fontname="Helvetica",fontsize="10",shape=record];
  Node1 [label="cuTEST/StringUtil.hpp",height=0.2,width=0.4,color="black", fillcolor="grey75", style="filled", fontcolor="black"];
  Node1 -> Node2 [dir="back",color="midnightblue",fontsize="10",style="solid",fontname="Helvetica"];
  Node2 [label="cuTEST/EXAMPLES/Tester\l_Example.hpp",height=0.2,width=0.4,color="black", fillcolor="white", style="filled",URL="$Tester__Example_8hpp.html"];
  Node1 -> Node3 [dir="back",color="midnightblue",fontsize="10",style="solid",fontname="Helvetica"];
  Node3 [label="cuTEST/TesterBase.cpp",height=0.2,width=0.4,color="black", fillcolor="white", style="filled",URL="$TesterBase_8cpp.html"];
  Node1 -> Node4 [dir="back",color="midnightblue",fontsize="10",style="solid",fontname="Helvetica"];
  Node4 [label="Tester.hpp",height=0.2,width=0.4,color="black", fillcolor="white", style="filled",URL="$Tester_8hpp.html"];
  Node4 -> Node5 [dir="back",color="midnightblue",fontsize="10",style="solid",fontname="Helvetica"];
  Node5 [label="main.cpp",height=0.2,width=0.4,color="black", fillcolor="white", style="filled",URL="$main_8cpp.html"];
  Node1 -> Node6 [dir="back",color="midnightblue",fontsize="10",style="solid",fontname="Helvetica"];
  Node6 [label="SchoolProgram.hpp",height=0.2,width=0.4,color="black", fillcolor="white", style="filled",URL="$SchoolProgram_8hpp.html"];
  Node6 -> Node5 [dir="back",color="midnightblue",fontsize="10",style="solid",fontname="Helvetica"];
}
